{
    "database" : {
        "user" : "serverseabattle-2710",
        "password" : "Cr9wCAcM1GnZfmOfzFQuZJSCVKkH9S"
    },
    "area" : {
        "sideLength" : 10,
        "ships4" : {
            "size" : 4,
            "count" : 1
        },
        "ships3" : {
            "size" : 3,
            "count" : 2
        },
        "ships2" : {
            "size" : 2,
            "count" : 3
        },
        "ships1" : {
            "size" : 1,
            "count" : 4
        }
    },
    "messages" : {
        "serverError" : {
            "messageName" : "Message",
            "protoFile" : ["protofiles", "Message.proto"]
        },
        "authMe" : {
            "messageName" : "Message",
            "protoFile" : ["protofiles", "Message.proto"]
        },
        "authInfo" : {
            "messageName" : "UserInfo",
            "protoFile" : ["protofiles", "UserInfo.proto"]
        },
        "sessionReady" : {
            "messageName" : "Empty",
            "protoFile" : ["protofiles", "Empty.proto"]
        },
        "currentUserList" : {
            "messageName" : "UserList",
            "protoFile" : ["protofiles", "UserInfo.proto"]
        },
        "userWithAreaAddedInList" : {
            "messageName" : "UserInfo",
            "protoFile" : ["protofiles", "UserInfo.proto"]
        },
        "userWithAreaRemovedFromList" : {
            "messageName" : "UserInfoId",
            "protoFile" : ["protofiles", "UserInfo.proto"]
        },
        "requestForSelfArea" : {
            "messageName" : "SelfArea",
            "protoFile" : ["protofiles", "Ship.proto"]
        },
        "blockUserInList" : {
            "messageName" : "UserInfoId",
            "protoFile" : ["protofiles", "UserInfo.proto"]
        },
        "unblockUserInList" : {
            "messageName" : "UserInfoId",
            "protoFile" : ["protofiles", "UserInfo.proto"]
        },
        "requestInviteFromClient" : {
            "messageName" : "UserInfoId",
            "protoFile" : ["protofiles", "UserInfo.proto"]
        },
        "acceptInviteFromClient" : {
            "messageName" : "Empty",
            "protoFile" : ["protofiles", "Empty.proto"]
        },
        "rejectInviteFromClient" : {
            "messageName" : "Empty",
            "protoFile" : ["protofiles", "Empty.proto"]
        },
        "onBecameInviter" : {
            "messageName" : "Empty",
            "protoFile" : ["protofiles", "Empty.proto"]
        },
        "onBecameInvited" : {
            "messageName" : "UserInfo",
            "protoFile" : ["protofiles", "UserInfo.proto"]
        },
        "youAreRejected" : {
            "messageName" : "UserInfo",
            "protoFile" : ["protofiles", "UserInfo.proto"]
        },
        "inviterLeftTheGame" : {
            "messageName" : "UserInfo",
            "protoFile" : ["protofiles", "UserInfo.proto"]
        },
        "invitedUserLeftTheGame" : {
            "messageName" : "UserInfo",
            "protoFile" : ["protofiles", "UserInfo.proto"]
        },
        "onBattleEnterWithEnemy" : {
            "messageName" : "UserInfo",
            "protoFile" : ["protofiles", "UserInfo.proto"]
        },
        "userStepFromClient" : {
            "messageName" : "Cell",
            "protoFile" : ["protofiles", "Ship.proto"]
        },
        "battleFinishWithWinner" : {
            "messageName" : "UserInfo",
            "protoFile" : ["protofiles", "UserInfo.proto"]
        },
        "battleFinishOnUserDestroyed" : {
            "messageName" : "UserInfo",
            "protoFile" : ["protofiles", "UserInfo.proto"]
        },
        "onBecameActiveBattleUser" : {
            "messageName" : "Empty",
            "protoFile" : ["protofiles", "Empty.proto"]
        },
        "onBecameIdleBattleUser" : {
            "messageName" : "Empty",
            "protoFile" : ["protofiles", "Empty.proto"]
        },
        "enemyShotSyncEvent" : {
            "messageName" : "StatusedCell",
            "protoFile" : ["protofiles", "Ship.proto"]
        },
        "selfShotSyncEvent" : {
            "messageName" : "StatusedCell",
            "protoFile" : ["protofiles", "Ship.proto"]
        }
    }
}